{
  "name": "",
  "css_prefix_text": "icon-",
  "css_use_suffix": false,
  "hinting": true,
  "units_per_em": 1000,
  "ascent": 850,
  "glyphs": [
    {
      "uid": "47bd87a650e95b97f947d275ed968efe",
      "css": "facebook-squared",
      "code": 62222,
      "src": "entypo"
    },
    {
      "uid": "818a6c2a76c89800632c0335e9cdafee",
      "css": "gplus-circled",
      "code": 62224,
      "src": "entypo"
    },
    {
      "uid": "0419da6446cb4f31093e2022793571ca",
      "css": "twitter-circled",
      "code": 62218,
      "src": "entypo"
    },
    {
      "uid": "0fbfb1cd7a847c88ea4c141d0e1bbdb5",
      "css": "instagram",
      "code": 62253,
      "src": "entypo"
    }
  ]
}